^D:\AIE_PROGRAMMING_2021\C++\ZORP\ZORP\ZORP\MAIN.CPP
D:\AIE_PROGRAMMING_2021\C++\ZORP\ZORP\ZORP\DEBUG\VC142.PDB
D:\AIE_PROGRAMMING_2021\C++\ZORP\ZORP\ZORP\DEBUG\VC142.IDB
D:\AIE_PROGRAMMING_2021\C++\ZORP\ZORP\ZORP\DEBUG\MAIN.OBJ
