^D:\AIE_PROGRAMMING_2021\C++\ZORP\ZORP\ZORP\DEBUG\MAIN.OBJ
D:\AIE_PROGRAMMING_2021\C++\ZORP\ZORP\DEBUG\ZORP.EXE
D:\AIE_PROGRAMMING_2021\C++\ZORP\ZORP\DEBUG\ZORP.ILK
D:\AIE_PROGRAMMING_2021\C++\ZORP\ZORP\DEBUG\ZORP.PDB
